Interact with the Datafaro API Seamlessly • datafaro
…
get_data(.dataset = 'imae-original')
#> # A tibble: 203 × 5
#>    date        imae imae__tci imae__tca imae__tcp
#>    <date>     <dbl>     <dbl>     <dbl>     <dbl>
#>  1 2007-01-01  94.0        NA        NA        NA
#>  2 2007-02-01  96.9        NA        NA        NA
#>  3 2007-03-01 101.         NA        NA        NA
#>  4 2007-04-01  95.7        NA        NA        NA
#>  5 2007-05-01 103.         NA        NA        NA
#>  6 2007-06-01  98.0        NA        NA        NA
#>  7 2007-07-01 101.         NA        NA        NA
#>  8 2007-08-01 102.         NA        NA        NA
#>  9 2007-09-01  97.7        NA        NA        NA
#> 10 2007-10-01 103.         NA        NA        NA
#> # ℹ 193 more rows
…
