…
Puedes instalar `datafaro` desde el repositorio r-universe de Adatar:

``` r
install.packages('datafaro', repos = 'https://adatar-do.r-universe.dev')
```

## Ejemplo

Aquí tienes un ejemplo básico para comenzar con datafaro:

``` r
library(datafaro)
get_data('NC_XDC')
#> ✔ Setting active project to 'C:/Users/drdsd/Documents/Projects/DOMAR/datafaroR'
#> # A tibble: 132 × 2
#>    date        value
#>    <date>      <dbl>
#>  1 1991-03-01 25592.
#>  2 1991-06-01 25884.
#>  3 1991-09-01 26270.
#>  4 1991-12-01 28863.
#>  5 1992-03-01 29160.
#>  6 1992-06-01 30660.
#>  7 1992-09-01 31504.
#>  8 1992-12-01 36430.
#>  9 1993-03-01 32681.
#> 10 1993-06-01 34340.
#> # ℹ 122 more rows
…
